party_state_id;party_status;party_prev_status;party_state;
1;2;1;CREATE_PARTY;
2;5;1;CANCEL_PARTY;
3;5;2;CANCEL_PARTY;
4;3;2;PROGRESS_PARTY;
5;4;3;FROZE_PARTY;
6;5;3;CANCEL_PARTY;
7;3;4;PROGRESS_PARTY;
9;6;3;COMPLETE_PARTY;
